…
## Note the above info message that sample_rate was estimated correctly at 2 Hz 👆
## ignore the warnings about irregular sampling for now, we will resample later

data_table
#> # A tibble: 2,203 × 3
#>     time smo2_left smo2_right
#>    <dbl>     <dbl>      <dbl>
#>  1 0            54         68
#>  2 0.400        54         68
#>  3 0.960        54         68
#>  4 1.51         54         66
#>  5 2.06         54         66
#>  6 2.61         54         66
#>  7 3.16         54         66
#>  8 3.71         57         67
#>  9 4.26         57         67
#> 10 4.81         57         67
#> # ℹ 2,193 more rows
…
<img src="man/figures/README-unnamed-chunk-4-1.png" alt="" width="100%" />

### `resample_mnirs()`: Resample data

``` r
data_resampled <- resample_mnirs(
    data_cleaned,      ## blank channels will be retrieved from metadata
    resample_rate = 2, ## blank by default will resample to `sample_rate`
    method = "linear"  ## linear interpolation across resampled indices
)
#> ℹ Output is resampled at 2 Hz.

## note the altered "time" values from the original data frame 👇
data_resampled
#> # A tibble: 2,419 × 3
#>     time smo2_left smo2_right
#>    <dbl>     <dbl>      <dbl>
#>  1   0        54         68  
#>  2   0.5      54         68  
#>  3   1        54         67.9
#>  4   1.5      54         66.0
#>  5   2        54         66  
#>  6   2.5      54         66  
#>  7   3        54         66  
#>  8   3.5      55.9       66.6
#>  9   4        57         67  
#> 10   4.5      57         67  
#> # ℹ 2,409 more rows
```
…
