Extract intervals from mnirs data — extract_intervals • mnirs
…
## ensemble-average across multiple intervals
interval_list <- extract_intervals(
    data,                       ## channels recycled to all intervals by default
    nirs_channels = c(smo2_left, smo2_right),
    start = by_time(368, 1093), ## manually identified interval start times
    span = c(-20, 90),          ## include the last 180-sec of each interval (recycled)
    event_groups = "ensemble",  ## ensemble-average across two intervals
    zero_time = TRUE            ## re-calculate common time to start from `0`
)

interval_list[[1L]]
#> # A tibble: 1,101 × 3
#>     time smo2_left smo2_right
#>    <dbl>     <dbl>      <dbl>
#>  1 -20        56.2       58.9
#>  2 -19.9      56.2       58.9
#>  3 -19.8      55.4       59.0
#>  4 -19.7      55.4       59.2
#>  5 -19.6      55.4       60.2
#>  6 -19.5      55.4       60.2
#>  7 -19.4      56.0       58.9
#>  8 -19.3      56.0       60.0
#>  9 -19.2      56.2       59.8
#> 10 -19.1      55.8       59.0
#> # ℹ 1,091 more rows
…
