…
## extract intervals as a list of data frames
extract_intervals(
    data,
    nirs_channels = list(c(smo2_left, smo2_right)),
    event_times = c(368, 1093), ## specify interval events
    event_groups = "distinct",  ## return all unique intervals
    span = list(c(-20, 90)),    ## specify the event start-end timespans
    zero_time = TRUE,           ## start time from zero
    verbose = FALSE
)
#> $interval_1
#> # A tibble: 1,101 × 3
#>     time smo2_left smo2_right
#>    <dbl>     <dbl>      <dbl>
#>  1 -20        55.6       60.9
#>  2 -19.9      55.8       60.7
#>  3 -19.8      56.1       60.6
#>  4 -19.7      56.3       60.4
#>  5 -19.6      56.6       60.3
#>  6 -19.5      56.8       60.1
#>  7 -19.4      56.6       60.1
#>  8 -19.3      56.9       59.8
#>  9 -19.2      56.7       60.1
#> 10 -19.1      56.2       59.8
#> # ℹ 1,091 more rows
#> 
#> $interval_2
#> # A tibble: 1,101 × 3
#>     time smo2_left smo2_right
#>    <dbl>     <dbl>      <dbl>
#>  1 -20        56.2       57.2
#>  2 -19.9      55.7       57.4
#>  3 -19.8      55.3       57.0
#>  4 -19.7      55.3       58.6
#>  5 -19.6      55.3       58.8
#>  6 -19.5      55.3       57.9
#>  7 -19.4      55.3       59.1
#>  8 -19.3      55.3       59.0
#>  9 -19.2      55.3       57.6
#> 10 -19.1      55.7       57.4
#> # ℹ 1,091 more rows
#> 

## ensemble-average across multiple intervals
interval_list <- extract_intervals(
    data,
    nirs_channels = list(c(smo2_left, smo2_right)),
    event_times = c(368, 1093),
    event_groups = "ensemble", ## return ensemble-averaged intervals
    span = list(c(-20, 90)),
    zero_time = TRUE,
    verbose = FALSE
)

interval_list[[1L]]
#> # A tibble: 1,101 × 3
#>     time smo2_left smo2_right
#>    <dbl>     <dbl>      <dbl>
#>  1 -20        55.9       59.0
#>  2 -19.9      55.8       59.1
#>  3 -19.8      55.7       58.8
#>  4 -19.7      55.8       59.5
#>  5 -19.6      56.0       59.6
#>  6 -19.5      56.1       59.0
#>  7 -19.4      56.0       59.6
#>  8 -19.3      56.1       59.4
#>  9 -19.2      56.0       58.8
#> 10 -19.1      55.9       58.6
#> # ℹ 1,091 more rows
…
