…
data
#> # A tibble: 2,202 × 2
#>     time  smo2
#>    <dbl> <dbl>
#>  1 0        54
#>  2 0.560    54
#>  3 1.11     54
#>  4 1.66     54
#>  5 2.21     54
#>  6 2.76     54
#>  7 3.31     57
#>  8 3.86     57
#>  9 4.41     57
#> 10 4.96     57
#> # ℹ 2,192 more rows

data_filtered <- filter_mnirs(
    data,                   ## blank channels will be retrieved from metadata
    method = "butterworth", ## Butterworth digital filter is a common choice
    order = 2,              ## filter order number
    W = 0.02,               ## filter fractional critical frequency `[0, 1]`
    type = "low",           ## specify a "low-pass" filter
    na.rm = TRUE            ## explicitly ignore NAs
)

## note the smoothed `smo2` values
data_filtered
#> # A tibble: 2,202 × 2
#>     time  smo2
#>    <dbl> <dbl>
#>  1 0      54.5
#>  2 0.560  54.5
#>  3 1.11   54.5
#>  4 1.66   54.5
#>  5 2.21   54.5
#>  6 2.76   54.5
#>  7 3.31   54.5
#>  8 3.86   54.5
#>  9 4.41   54.5
#> 10 4.96   54.5
#> # ℹ 2,192 more rows
…
