Read mnirs data from file — read_mnirs • mnirs
…
    ),
    time_channel = c(time = "hh:mm:ss"),    ## date-time format will be converted to numeric
    event_channel = NULL,                   ## leave blank if unused
    sample_rate = NULL,                     ## if blank, will be estimated from time_channel
    add_timestamp = FALSE,                  ## omit a date-time timestamp column
    zero_time = TRUE,                       ## recalculate time values from zero
    keep_all = FALSE,                       ## return only the specified data channels
    verbose = TRUE                          ## show warnings & messages
)
#> ! Estimated `sample_rate` = 2 Hz.
#> ℹ Define `sample_rate` explicitly to override.
#> Warning: ! Duplicate or irregular `time_channel` samples detected.
#> ℹ Investigate at `time` = 211.99 and 1184.
#> ℹ Re-sample with `mnirs::resample_mnirs()`.
#> # A tibble: 2,203 × 3
#>     time smo2_left smo2_right
#>    <dbl>     <dbl>      <dbl>
#>  1 0            54         68
#>  2 0.400        54         68
#>  3 0.960        54         68
#>  4 1.51         54         66
#>  5 2.06         54         66
#>  6 2.61         54         66
#>  7 3.16         54         66
#>  8 3.71         57         67
#>  9 4.26         57         67
#> 10 4.81         57         67
#> # ℹ 2,193 more rows
…
