…
``` r
## call an example mNIRS data file
file_path <- example_mnirs("moxy_ramp")

read_mnirs(
    file_path,
    nirs_channels = c(                   ## identify and rename channels
        smo2_right = "SmO2 Live",
        smo2_left = "SmO2 Live(2)"
    ),
    time_channel = c(time = "hh:mm:ss"), ## date-time format will be converted to numeric
    sample_rate = NULL,                  ## sample_rate will be estimated from time_channel
    verbose = FALSE                      ## silence warnings & messages
)
#> # A tibble: 2,203 × 3
#>     time smo2_right smo2_left
#>    <dbl>      <dbl>     <dbl>
#>  1 0             54        68
#>  2 0.400         54        68
#>  3 0.960         54        68
#>  4 1.51          54        66
#>  5 2.06          54        66
#>  6 2.61          54        66
#>  7 3.16          54        66
#>  8 3.71          57        67
#>  9 4.26          57        67
#> 10 4.81          57        67
#> # ℹ 2,193 more rows
```
