Re-sample an mnirs data frame — resample_mnirs • mnirs
…
## note warning about irregular sampling
data
#> # A tibble: 2,203 × 2
#>     time  smo2
#>    <dbl> <dbl>
#>  1 0        54
#>  2 0.400    54
#>  3 0.960    54
#>  4 1.51     54
#>  5 2.06     54
#>  6 2.61     54
#>  7 3.16     54
#>  8 3.71     57
#>  9 4.26     57
#> 10 4.81     57
#> # ℹ 2,193 more rows

data_resampled <- resample_mnirs(
    data,               ## blank channels will be retrieved from metadata
    resample_rate = 2,  ## blank by default will resample to `sample_rate`
    method = "linear",  ## linear interpolation across resampled indices
    verbose = TRUE      
)
#> ℹ Output is resampled at 2 Hz.

## note the altered `time` values resolving the above warning
data_resampled
#> # A tibble: 2,419 × 2
#>     time  smo2
#>    <dbl> <dbl>
#>  1   0    54  
#>  2   0.5  54  
#>  3   1    54  
#>  4   1.5  54  
#>  5   2    54  
#>  6   2.5  54  
#>  7   3    54  
#>  8   3.5  55.9
#>  9   4    57  
#> 10   4.5  57  
#> # ℹ 2,409 more rows
…
