…
data
#> # A tibble: 2,203 × 3
#>     time smo2_left smo2_right
#>    <dbl>     <dbl>      <dbl>
#>  1 0            54       78.2
#>  2 0.400        54       78.2
#>  3 0.960        54       78.2
#>  4 1.51         54       75.6
#>  5 2.06         54       75.6
#>  6 2.61         54       75.6
#>  7 3.16         54       75.6
#>  8 3.71         57       76.9
#>  9 4.26         57       76.9
#> 10 4.81         57       76.9
#> # ℹ 2,193 more rows
…
