…
data
#> # A tibble: 2,202 × 3
#>     time smo2_left smo2_right
#>    <dbl>     <dbl>      <dbl>
#>  1 0         -1.56      2.22 
#>  2 0.560     -1.56      2.22 
#>  3 1.11      -1.56      0.225
#>  4 1.66      -1.56      0.225
#>  5 2.21      -1.56      0.225
#>  6 2.76      -1.56      0.225
#>  7 3.31       1.44      1.22 
#>  8 3.86       1.44      1.22 
#>  9 4.41       1.44      1.22 
#> 10 4.96       1.44      1.22 
#> # ℹ 2,192 more rows
…
