Analysing muscle oxidative capacity with {mnirs} • mnirs
…
One thing to note: Artinis Oxysoft exports an event label column without a named header by default. This is the column we will use to identify our occlusion events by the label "Occlusion", so we need to include it. Currently in {mnirs} an unnamed column like this will be named "col_" with a numeric suffix for the column number in the data file. In our example file, this events column will therefore be "col_6". It’s not the most elegant solution, but it works for now!

We can separate the two trials in the data set by finding the longer gap between consecutive occlusion labels and manually defining intervals before that as trial 1, and after that as trial 2.

df <- read_mnirs(
    file_path = example_mnirs("portamon-oxcap.xlsx"),
    nirs_channels = c(thb = 2, hhb = 3, o2hb = 4), ## identify and rename NIRS channels
    time_channel = c(sample = 1),
    event_channel = c(event = "col_6") ## specify the unnamed events column
)

## view the structure of our data frame
df
#> # A tibble: 7,944 × 6
#>    sample  time event   thb   hhb  o2hb
#>     <dbl> <dbl> <chr> <dbl> <dbl> <dbl>
#>  1      0   0   <NA>   146.  63.0  82.9
#>  2      1   0.1 <NA>   146.  63.0  82.8
#>  3      2   0.2 <NA>   146.  63.0  82.8
#>  4      3   0.3 <NA>   146.  63.0  82.9
#>  5      4   0.4 <NA>   146.  63.0  82.7
#>  6      5   0.5 <NA>   146.  62.9  82.6
#>  7      6   0.6 <NA>   146.  62.9  82.7
#>  8      7   0.7 <NA>   146.  62.9  82.8
#>  9      8   0.8 <NA>   146.  62.9  82.7
#> 10      9   0.9 <NA>   146.  62.9  82.7
#> # ℹ 7,934 more rows
…
