Reading and Cleaning Data with {mnirs} • mnirs
…
## Note the above info message that sample_rate was estimated correctly at 2 Hz ☝
## ignore the warnings about irregular sampling for now

data_table
#> # A tibble: 2,203 × 3
#>     time smo2_right smo2_left
#>    <dbl>      <dbl>     <dbl>
#>  1  0            54        68
#>  2  0.4          54        68
#>  3  0.96         54        68
#>  4  1.51         54        66
#>  5  2.06         54        66
#>  6  2.61         54        66
#>  7  3.16         54        66
#>  8  3.71         57        67
#>  9  4.26         57        67
#> 10  4.81         57        67
#> # ℹ 2,193 more rows
…
Resampling can be specified by the number of samples per second (Hz). The default resample_rate will re-sample back to the existing sample_rate of the data. This can be useful to average over irregular sampling resulting in unequal time values. Linear interpolation will be used to re-sample time_channel to round values of the sample_rate.

data_resampled <- resample_mnirs(
    data_cleaned,
    # time_channel = NULL,        ## retrieved from metadata
    # sample_rate = NULL,
    # resample_rate = sample_rate ## the default will re-sample to sample_rate
    method = "linear",            ## default linear interpolation across any new samples
    verbose = TRUE                ## will confirm the output sample rate
)
#> ℹ Output is resampled at 2 Hz.

## note the altered "time" values 👇
data_resampled
#> # A tibble: 2,419 × 3
#>     time smo2_right smo2_left
#>    <dbl>      <dbl>     <dbl>
#>  1   0         54        68  
#>  2   0.5       54        68  
#>  3   1         54        67.9
#>  4   1.5       54        66.0
#>  5   2         54        66  
#>  6   2.5       54        66  
#>  7   3         54        66  
#>  8   3.5       55.9      66.6
#>  9   4         57        67  
#> 10   4.5       57        67  
#> # ℹ 2,409 more rows
…
